{"count":8540,"next":"http://iatidatastore.iatistandard.org/api/datasets/?format=json&page=2","previous":null,"results":[{"url":"http://iatidatastore.iatistandard.org/api/datasets/3459/?format=json","name":"111111_publisher-activities","title":"Koepel van de Vlaamse Noord-Zuidbeweging 11.11.11 VZW Activity File","filetype":"Activity","publisher":{"url":"http://iatidatastore.iatistandard.org/api/publishers/812/?format=json","publisher_iati_id":"BE-BCE_KBO-0421210424","display_name":"Koepel van de Vlaamse Noord-Zuidbeweging 11.11.11 VZW","name":"111111_publisher"},"source_url":"https://aidstream.s3.us-west-2.amazonaws.com/xml/111111_publisher-activities.xml","activities":"http://iatidatastore.iatistandard.org/api/activities/?dataset=3459&format=json","activity_count":18,"date_created":"2018-04-27T07:59:44.464975","date_updated":"2021-04-30T10:06:27.493035","last_found_in_registry":"2021-06-13T05:22:44.250083","iati_version":"2.02","sha1":"ce29226356b7d1bc70c13c2c14fad580e41de990","note_count":0,"added_manually":false,"internal_url":"https://iatidatastore.iatistandard.org/static/datasets/BE-BCE_KBO-0421210424/Activity/2.02/111111_publisher-activities.xml"},{"url":"http://iatidatastore.iatistandard.org/api/datasets/3460/?format=json","name":"111111_publisher-org","title":"Koepel van de Vlaamse Noord-Zuidbeweging 11.11.11 VZW Organisation File","filetype":"Organisation","publisher":{"url":"http://iatidatastore.iatistandard.org/api/publishers/812/?format=json","publisher_iati_id":"BE-BCE_KBO-0421210424","display_name":"Koepel van de Vlaamse Noord-Zuidbeweging 11.11.11 VZW","name":"111111_publisher"},"source_url":"https://aidstream.s3.us-west-2.amazonaws.com/xml/111111_publisher-org.xml","activities":"http://iatidatastore.iatistandard.org/api/activities/?dataset=3460&format=json","activity_count":0,"date_created":"2018-12-13T14:47:18.288373","date_updated":"2021-04-30T11:42:39.807213","last_found_in_registry":"2021-06-13T05:22:43.347157","iati_version":"2.02","sha1":"30fef50ae0e39a57f21f1df699b9ab416c940316","note_count":0,"added_manually":false,"internal_url":"https://iatidatastore.iatistandard.org/static/datasets/BE-BCE_KBO-0421210424/Organisation/2.02/111111_publisher-org.xml"},{"url":"http://iatidatastore.iatistandard.org/api/datasets/1167/?format=json","name":"12921047-activities","title":"CARE Danmark Activity File","filetype":"Activity","publisher":{"url":"http://iatidatastore.iatistandard.org/api/publishers/231/?format=json","publisher_iati_id":"DK-CVR-12921047","display_name":"CARE Danmark Fonden for Frivillig Ulandsbistand","name":"12921047"},"source_url":"https://aidstream.s3.us-west-2.amazonaws.com/xml/12921047-activities.xml","activities":"http://iatidatastore.iatistandard.org/api/activities/?dataset=1167&format=json","activity_count":11,"date_created":"2018-12-17T14:17:41.674109","date_updated":"2020-09-23T07:49:48.139617","last_found_in_registry":"2021-06-13T05:19:15.924532","iati_version":"2.03","sha1":"0eae9acc92c3325f9927cbd6d7fe463f7132b9ae","note_count":0,"added_manually":false,"internal_url":"https://iatidatastore.iatistandard.org/static/datasets/DK-CVR-12921047/Activity/2.03/12921047-activities.xml"},{"url":"http://iatidatastore.iatistandard.org/api/datasets/7270/?format=json","name":"1-uz-org","title":"University Of Zimbabwe Organisation File","filetype":"Organisation","publisher":{"url":"http://iatidatastore.iatistandard.org/api/publishers/1473/?format=json","publisher_iati_id":"XI-GRID-grid.13001.33","display_name":"University Of Zimbabwe","name":"1-uz"},"source_url":"https://aidstream.s3.us-west-2.amazonaws.com/xml/1-uz-org.xml","activities":"http://iatidatastore.iatistandard.org/api/activities/?dataset=7270&format=json","activity_count":0,"date_created":"2019-02-10T09:29:46.915417","date_updated":"2019-11-09T02:30:19.253534","last_found_in_registry":"2021-06-13T05:30:49.881554","iati_version":"2.02","sha1":"780319192ca4c79184ca79bc4fc4849bf984d2f5","note_count":0,"added_manually":false,"internal_url":"https://iatidatastore.iatistandard.org/static/datasets/XI-GRID-grid.13001.33/Organisation/2.02/1-uz-org.xml"},{"url":"http://iatidatastore.iatistandard.org/api/datasets/7269/?format=json","name":"1-uz-zw","title":"University Of Zimbabwe Activity File-ZW","filetype":"Activity","publisher":{"url":"http://iatidatastore.iatistandard.org/api/publishers/1473/?format=json","publisher_iati_id":"XI-GRID-grid.13001.33","display_name":"University Of Zimbabwe","name":"1-uz"},"source_url":"https://aidstream.s3.us-west-2.amazonaws.com/xml/1-uz-zw.xml","activities":"http://iatidatastore.iatistandard.org/api/activities/?dataset=7269&format=json","activity_count":1,"date_created":"2019-02-18T07:45:58.314127","date_updated":"2019-11-09T02:30:21.542032","last_found_in_registry":"2021-06-13T05:30:49.681091","iati_version":"2.02","sha1":"22d9b34b6e70de465df75a07955f6ea195f416ad","note_count":0,"added_manually":false,"internal_url":"https://iatidatastore.iatistandard.org/static/datasets/XI-GRID-grid.13001.33/Activity/2.02/1-uz-zw.xml"},{"url":"http://iatidatastore.iatistandard.org/api/datasets/502/?format=json","name":"3ie-artw","title":"Agriculture innovation thematic window for  Risk Insurance","filetype":"Activity","publisher":{"url":"http://iatidatastore.iatistandard.org/api/publishers/733/?format=json","publisher_iati_id":"US-EIN-262681792","display_name":"International Initiative for Impact Evaluation","name":"3ie"},"source_url":"https://www.3ieimpact.org/sites/default/files/artw_2.xml","activities":"http://iatidatastore.iatistandard.org/api/activities/?dataset=502&format=json","activity_count":1,"date_created":"2018-05-11T10:33:23.394222","date_updated":"2020-06-17T09:42:25.472746","last_found_in_registry":"2021-06-13T05:18:04.470080","iati_version":"2.02","sha1":"782774a859bb80c24e6aaa62497cce4119f4c86f","note_count":0,"added_manually":false,"internal_url":"https://iatidatastore.iatistandard.org/static/datasets/US-EIN-262681792/Activity/2.02/artw_2.xml"},{"url":"http://iatidatastore.iatistandard.org/api/datasets/1655/?format=json","name":"3ie-dpw","title":"Development Priority Windows","filetype":"Activity","publisher":{"url":"http://iatidatastore.iatistandard.org/api/publishers/733/?format=json","publisher_iati_id":"US-EIN-262681792","display_name":"International Initiative for Impact Evaluation","name":"3ie"},"source_url":"https://www.3ieimpact.org/sites/default/files/dpw.xml","activities":"http://iatidatastore.iatistandard.org/api/activities/?dataset=1655&format=json","activity_count":1,"date_created":"2018-04-13T11:41:42.754689","date_updated":"2020-06-17T09:42:57.535805","last_found_in_registry":"2021-06-13T05:20:01.562881","iati_version":"2.02","sha1":"2efb7771fd78c00047de81b2d97eaf8b6c0427de","note_count":0,"added_manually":false,"internal_url":"https://iatidatastore.iatistandard.org/static/datasets/US-EIN-262681792/Activity/2.02/dpw.xml"},{"url":"http://iatidatastore.iatistandard.org/api/datasets/2798/?format=json","name":"3ie-htw","title":"Humanitarian Thematic Window","filetype":"Activity","publisher":{"url":"http://iatidatastore.iatistandard.org/api/publishers/733/?format=json","publisher_iati_id":"US-EIN-262681792","display_name":"International Initiative for Impact Evaluation","name":"3ie"},"source_url":"https://www.3ieimpact.org/sites/default/files/hatw.xml","activities":"http://iatidatastore.iatistandard.org/api/activities/?dataset=2798&format=json","activity_count":1,"date_created":"2018-05-11T09:53:17.570118","date_updated":"2020-06-17T09:43:23.694217","last_found_in_registry":"2021-06-13T05:21:40.745037","iati_version":"2.02","sha1":"c3ab2107c62187e0be19c139e89eee5b39dbb1ea","note_count":0,"added_manually":false,"internal_url":"https://iatidatastore.iatistandard.org/static/datasets/US-EIN-262681792/Activity/2.02/hatw.xml"},{"url":"http://iatidatastore.iatistandard.org/api/datasets/4956/?format=json","name":"3ie-sptw","title":"Social Protection Thematic Window","filetype":"Activity","publisher":{"url":"http://iatidatastore.iatistandard.org/api/publishers/733/?format=json","publisher_iati_id":"US-EIN-262681792","display_name":"International Initiative for Impact Evaluation","name":"3ie"},"source_url":"https://www.3ieimpact.org/sites/default/files/sptw.xml","activities":"http://iatidatastore.iatistandard.org/api/activities/?dataset=4956&format=json","activity_count":1,"date_created":"2018-05-11T09:50:54.785247","date_updated":"2020-06-17T09:43:47.763457","last_found_in_registry":"2021-06-13T05:25:56.968572","iati_version":"2.02","sha1":"0479d4071aec8e2eed4df07992b070f3ab1810be","note_count":0,"added_manually":false,"internal_url":"https://iatidatastore.iatistandard.org/static/datasets/US-EIN-262681792/Activity/2.02/sptw.xml"},{"url":"http://iatidatastore.iatistandard.org/api/datasets/5994/?format=json","name":"3ie-taw","title":"Transparency and Accountability Initiative Thematic Window","filetype":"Activity","publisher":{"url":"http://iatidatastore.iatistandard.org/api/publishers/733/?format=json","publisher_iati_id":"US-EIN-262681792","display_name":"International Initiative for Impact Evaluation","name":"3ie"},"source_url":"https://www.3ieimpact.org/sites/default/files/tai_0.xml","activities":"http://iatidatastore.iatistandard.org/api/activities/?dataset=5994&format=json","activity_count":1,"date_created":"2018-05-11T09:52:33.610911","date_updated":"2020-06-17T09:41:40.065798","last_found_in_registry":"2021-06-13T05:28:06.244355","iati_version":"2.02","sha1":"8734acd1338a004b25e34047474d8fb9c5934c7b","note_count":0,"added_manually":false,"internal_url":"https://iatidatastore.iatistandard.org/static/datasets/US-EIN-262681792/Activity/2.02/tai_0.xml"}]}
