{
    "count": 8377,
    "next": "http://iatidatastore.iatistandard.org/api/datasets/?format=json&page=2",
    "previous": null,
    "results": [
        {
            "url": "http://iatidatastore.iatistandard.org/api/datasets/3459/?format=json",
            "name": "111111_publisher-activities",
            "title": "Koepel van de Vlaamse Noord-Zuidbeweging 11.11.11 VZW Activity File",
            "filetype": "Activity",
            "publisher": {
                "url": "http://iatidatastore.iatistandard.org/api/publishers/812/?format=json",
                "publisher_iati_id": "BE-BCE_KBO-0421210424",
                "display_name": "Koepel van de Vlaamse Noord-Zuidbeweging 11.11.11 VZW",
                "name": "111111_publisher"
            },
            "source_url": "https://aidstream.s3.us-west-2.amazonaws.com/xml/111111_publisher-activities.xml",
            "activities": "http://iatidatastore.iatistandard.org/api/activities/?dataset=3459&format=json",
            "activity_count": 18,
            "date_created": "2018-04-27T07:59:44.464975",
            "date_updated": "2021-05-06T07:58:05.681622",
            "last_found_in_registry": "2021-05-04T10:19:51.127281",
            "iati_version": "2.02",
            "sha1": "ce29226356b7d1bc70c13c2c14fad580e41de990",
            "note_count": 0,
            "added_manually": false,
            "internal_url": "https://iatidatastore.iatistandard.org/static/datasets/BE-BCE_KBO-0421210424/Activity/2.02/111111_publisher-activities.xml"
        },
        {
            "url": "http://iatidatastore.iatistandard.org/api/datasets/3460/?format=json",
            "name": "111111_publisher-org",
            "title": "Koepel van de Vlaamse Noord-Zuidbeweging 11.11.11 VZW Organisation File",
            "filetype": "Organisation",
            "publisher": {
                "url": "http://iatidatastore.iatistandard.org/api/publishers/812/?format=json",
                "publisher_iati_id": "BE-BCE_KBO-0421210424",
                "display_name": "Koepel van de Vlaamse Noord-Zuidbeweging 11.11.11 VZW",
                "name": "111111_publisher"
            },
            "source_url": "https://aidstream.s3.us-west-2.amazonaws.com/xml/111111_publisher-org.xml",
            "activities": "http://iatidatastore.iatistandard.org/api/activities/?dataset=3460&format=json",
            "activity_count": 0,
            "date_created": "2018-12-13T14:47:18.288373",
            "date_updated": "2021-05-06T07:11:03.941590",
            "last_found_in_registry": "2021-05-04T10:19:50.689915",
            "iati_version": "2.02",
            "sha1": "30fef50ae0e39a57f21f1df699b9ab416c940316",
            "note_count": 0,
            "added_manually": false,
            "internal_url": "https://iatidatastore.iatistandard.org/static/datasets/BE-BCE_KBO-0421210424/Organisation/2.02/111111_publisher-org.xml"
        },
        {
            "url": "http://iatidatastore.iatistandard.org/api/datasets/1167/?format=json",
            "name": "12921047-activities",
            "title": "CARE Danmark Activity File",
            "filetype": "Activity",
            "publisher": {
                "url": "http://iatidatastore.iatistandard.org/api/publishers/231/?format=json",
                "publisher_iati_id": "DK-CVR-12921047",
                "display_name": "CARE Danmark Fonden for Frivillig Ulandsbistand",
                "name": "12921047"
            },
            "source_url": "https://aidstream.s3.us-west-2.amazonaws.com/xml/12921047-activities.xml",
            "activities": "http://iatidatastore.iatistandard.org/api/activities/?dataset=1167&format=json",
            "activity_count": 11,
            "date_created": "2018-12-17T14:17:41.674109",
            "date_updated": "2021-05-06T07:36:53.288920",
            "last_found_in_registry": "2021-05-04T10:04:06.515640",
            "iati_version": "2.03",
            "sha1": "0eae9acc92c3325f9927cbd6d7fe463f7132b9ae",
            "note_count": 0,
            "added_manually": false,
            "internal_url": "https://iatidatastore.iatistandard.org/static/datasets/DK-CVR-12921047/Activity/2.03/12921047-activities.xml"
        },
        {
            "url": "http://iatidatastore.iatistandard.org/api/datasets/7270/?format=json",
            "name": "1-uz-org",
            "title": "University Of Zimbabwe Organisation File",
            "filetype": "Organisation",
            "publisher": {
                "url": "http://iatidatastore.iatistandard.org/api/publishers/1473/?format=json",
                "publisher_iati_id": "XI-GRID-grid.13001.33",
                "display_name": "University Of Zimbabwe",
                "name": "1-uz"
            },
            "source_url": "https://aidstream.s3.us-west-2.amazonaws.com/xml/1-uz-org.xml",
            "activities": "http://iatidatastore.iatistandard.org/api/activities/?dataset=7270&format=json",
            "activity_count": 0,
            "date_created": "2019-02-10T09:29:46.915417",
            "date_updated": "2021-05-06T07:11:05.365122",
            "last_found_in_registry": "2021-05-04T10:48:30.976485",
            "iati_version": "2.02",
            "sha1": "780319192ca4c79184ca79bc4fc4849bf984d2f5",
            "note_count": 0,
            "added_manually": false,
            "internal_url": "https://iatidatastore.iatistandard.org/static/datasets/XI-GRID-grid.13001.33/Organisation/2.02/1-uz-org.xml"
        },
        {
            "url": "http://iatidatastore.iatistandard.org/api/datasets/7269/?format=json",
            "name": "1-uz-zw",
            "title": "University Of Zimbabwe Activity File-ZW",
            "filetype": "Activity",
            "publisher": {
                "url": "http://iatidatastore.iatistandard.org/api/publishers/1473/?format=json",
                "publisher_iati_id": "XI-GRID-grid.13001.33",
                "display_name": "University Of Zimbabwe",
                "name": "1-uz"
            },
            "source_url": "https://aidstream.s3.us-west-2.amazonaws.com/xml/1-uz-zw.xml",
            "activities": "http://iatidatastore.iatistandard.org/api/activities/?dataset=7269&format=json",
            "activity_count": 1,
            "date_created": "2019-02-18T07:45:58.314127",
            "date_updated": "2021-05-06T07:36:54.652196",
            "last_found_in_registry": "2021-05-04T10:48:30.216060",
            "iati_version": "2.02",
            "sha1": "22d9b34b6e70de465df75a07955f6ea195f416ad",
            "note_count": 0,
            "added_manually": false,
            "internal_url": "https://iatidatastore.iatistandard.org/static/datasets/XI-GRID-grid.13001.33/Activity/2.02/1-uz-zw.xml"
        },
        {
            "url": "http://iatidatastore.iatistandard.org/api/datasets/502/?format=json",
            "name": "3ie-artw",
            "title": "Agriculture innovation thematic window for  Risk Insurance",
            "filetype": "Activity",
            "publisher": {
                "url": "http://iatidatastore.iatistandard.org/api/publishers/733/?format=json",
                "publisher_iati_id": "US-EIN-262681792",
                "display_name": "International Initiative for Impact Evaluation",
                "name": "3ie"
            },
            "source_url": "https://www.3ieimpact.org/sites/default/files/artw_2.xml",
            "activities": "http://iatidatastore.iatistandard.org/api/activities/?dataset=502&format=json",
            "activity_count": 1,
            "date_created": "2018-05-11T10:33:23.394222",
            "date_updated": "2021-05-06T07:36:55.743750",
            "last_found_in_registry": "2021-05-04T10:00:06.980370",
            "iati_version": "2.02",
            "sha1": "782774a859bb80c24e6aaa62497cce4119f4c86f",
            "note_count": 0,
            "added_manually": false,
            "internal_url": "https://iatidatastore.iatistandard.org/static/datasets/US-EIN-262681792/Activity/2.02/artw_2.xml"
        },
        {
            "url": "http://iatidatastore.iatistandard.org/api/datasets/1655/?format=json",
            "name": "3ie-dpw",
            "title": "Development Priority Windows",
            "filetype": "Activity",
            "publisher": {
                "url": "http://iatidatastore.iatistandard.org/api/publishers/733/?format=json",
                "publisher_iati_id": "US-EIN-262681792",
                "display_name": "International Initiative for Impact Evaluation",
                "name": "3ie"
            },
            "source_url": "https://www.3ieimpact.org/sites/default/files/dpw.xml",
            "activities": "http://iatidatastore.iatistandard.org/api/activities/?dataset=1655&format=json",
            "activity_count": 1,
            "date_created": "2018-04-13T11:41:42.754689",
            "date_updated": "2021-05-06T07:36:56.739308",
            "last_found_in_registry": "2021-05-04T10:08:40.817652",
            "iati_version": "2.02",
            "sha1": "2efb7771fd78c00047de81b2d97eaf8b6c0427de",
            "note_count": 0,
            "added_manually": false,
            "internal_url": "https://iatidatastore.iatistandard.org/static/datasets/US-EIN-262681792/Activity/2.02/dpw.xml"
        },
        {
            "url": "http://iatidatastore.iatistandard.org/api/datasets/2798/?format=json",
            "name": "3ie-htw",
            "title": "Humanitarian Thematic Window",
            "filetype": "Activity",
            "publisher": {
                "url": "http://iatidatastore.iatistandard.org/api/publishers/733/?format=json",
                "publisher_iati_id": "US-EIN-262681792",
                "display_name": "International Initiative for Impact Evaluation",
                "name": "3ie"
            },
            "source_url": "https://www.3ieimpact.org/sites/default/files/hatw.xml",
            "activities": "http://iatidatastore.iatistandard.org/api/activities/?dataset=2798&format=json",
            "activity_count": 1,
            "date_created": "2018-05-11T09:53:17.570118",
            "date_updated": "2021-05-06T07:36:57.588492",
            "last_found_in_registry": "2021-05-04T10:15:13.173051",
            "iati_version": "2.02",
            "sha1": "c3ab2107c62187e0be19c139e89eee5b39dbb1ea",
            "note_count": 0,
            "added_manually": false,
            "internal_url": "https://iatidatastore.iatistandard.org/static/datasets/US-EIN-262681792/Activity/2.02/hatw.xml"
        },
        {
            "url": "http://iatidatastore.iatistandard.org/api/datasets/4956/?format=json",
            "name": "3ie-sptw",
            "title": "Social Protection Thematic Window",
            "filetype": "Activity",
            "publisher": {
                "url": "http://iatidatastore.iatistandard.org/api/publishers/733/?format=json",
                "publisher_iati_id": "US-EIN-262681792",
                "display_name": "International Initiative for Impact Evaluation",
                "name": "3ie"
            },
            "source_url": "https://www.3ieimpact.org/sites/default/files/sptw.xml",
            "activities": "http://iatidatastore.iatistandard.org/api/activities/?dataset=4956&format=json",
            "activity_count": 1,
            "date_created": "2018-05-11T09:50:54.785247",
            "date_updated": "2021-05-06T07:36:58.453166",
            "last_found_in_registry": "2021-05-04T10:33:22.988047",
            "iati_version": "2.02",
            "sha1": "0479d4071aec8e2eed4df07992b070f3ab1810be",
            "note_count": 0,
            "added_manually": false,
            "internal_url": "https://iatidatastore.iatistandard.org/static/datasets/US-EIN-262681792/Activity/2.02/sptw.xml"
        },
        {
            "url": "http://iatidatastore.iatistandard.org/api/datasets/5994/?format=json",
            "name": "3ie-taw",
            "title": "Transparency and Accountability Initiative Thematic Window",
            "filetype": "Activity",
            "publisher": {
                "url": "http://iatidatastore.iatistandard.org/api/publishers/733/?format=json",
                "publisher_iati_id": "US-EIN-262681792",
                "display_name": "International Initiative for Impact Evaluation",
                "name": "3ie"
            },
            "source_url": "https://www.3ieimpact.org/sites/default/files/tai_0.xml",
            "activities": "http://iatidatastore.iatistandard.org/api/activities/?dataset=5994&format=json",
            "activity_count": 1,
            "date_created": "2018-05-11T09:52:33.610911",
            "date_updated": "2021-05-06T07:36:59.308640",
            "last_found_in_registry": "2021-05-04T10:38:54.591407",
            "iati_version": "2.02",
            "sha1": "8734acd1338a004b25e34047474d8fb9c5934c7b",
            "note_count": 0,
            "added_manually": false,
            "internal_url": "https://iatidatastore.iatistandard.org/static/datasets/US-EIN-262681792/Activity/2.02/tai_0.xml"
        }
    ]
}
